<svg width="160" height="160" viewBox="0 0 160 160" fill="none" xmlns="http://www.w3.org/2000/svg">
<path d="M80 160C124.183 160 160 124.183 160 80C160 35.8172 124.183 0 80 0C35.8172 0 0 35.8172 0 80C0 124.183 35.8172 160 80 160Z" fill="#DCEFE1"/>
<path fill-rule="evenodd" clip-rule="evenodd" d="M20.5 48C20.5 46.6 21.6 45.5 23 45.5H136.5C137.9 45.5 139 46.6 139 48V52H20.5V48ZM20.5 54.5V111.65C20.5 113.05 21.6 114.15 23 114.15H136.8C138.2 114.15 139.3 113.05 139.3 111.65V54.5H20.5ZM136.8 43C139.55 43 141.8 45.25 141.8 48V111.65C141.8 114.4 139.55 116.65 136.8 116.65H23C20.25 116.65 18 114.4 18 111.65V48C18 45.25 20.25 43 23 43H136.8Z" fill="#2CB34A"/>
<path d="M23.7 50.4C24.3627 50.4 24.9 49.8627 24.9 49.2C24.9 48.5373 24.3627 48 23.7 48C23.0373 48 22.5 48.5373 22.5 49.2C22.5 49.8627 23.0373 50.4 23.7 50.4Z" fill="#2CB34A"/>
<path d="M27.7 50.4C28.3075 50.4 28.8 49.8627 28.8 49.2C28.8 48.5373 28.3075 48 27.7 48C27.0925 48 26.6 48.5373 26.6 49.2C26.6 49.8627 27.0925 50.4 27.7 50.4Z" fill="#2CB34A"/>
<path d="M31.65 50.4C32.3128 50.4 32.85 49.8627 32.85 49.2C32.85 48.5373 32.3128 48 31.65 48C30.9873 48 30.45 48.5373 30.45 49.2C30.45 49.8627 30.9873 50.4 31.65 50.4Z" fill="#2CB34A"/>
<path d="M101.55 134.25C117.539 134.25 130.5 121.289 130.5 105.3C130.5 89.3114 117.539 76.35 101.55 76.35C85.5613 76.35 72.6 89.3114 72.6 105.3C72.6 121.289 85.5613 134.25 101.55 134.25Z" fill="#DCEFE1"/>
<path fill-rule="evenodd" clip-rule="evenodd" d="M101.55 134.25C117.55 134.25 130.5 121.3 130.5 105.3C130.5 89.3 117.55 76.35 101.55 76.35C85.55 76.35 72.6 89.3 72.6 105.3C72.6 121.3 85.6 134.25 101.55 134.25ZM101.55 131.75C116.15 131.75 128 119.9 128 105.3C128 90.7 116.15 78.85 101.55 78.85C86.95 78.85 75.1 90.7 75.1 105.3C75.1 119.9 86.95 131.75 101.55 131.75Z" fill="#21B544"/>
<path d="M103 129C116.531 129 127.5 118.031 127.5 104.5C127.5 90.969 116.531 80 103 80C89.469 80 78.5 90.969 78.5 104.5C78.5 118.031 89.469 129 103 129Z" fill="white"/>
<path fill-rule="evenodd" clip-rule="evenodd" d="M89.15 96.15L90.9 97.8L83.85 105.3L90.9 112.75L89.15 114.45L80.55 105.3L89.15 96.15Z" fill="#21B544"/>
<path fill-rule="evenodd" clip-rule="evenodd" d="M115 114.45L113.3 112.75L120.9 105.3L113.3 97.8L115 96.1L124.35 105.3L115 114.45Z" fill="#21B544"/>
<path d="M107.486 89.9555L94.7473 119.636L96.9986 120.602L109.738 90.9218L107.486 89.9555Z" fill="#21B544"/>
<path fill-rule="evenodd" clip-rule="evenodd" d="M65.25 74.65C69.35 74.65 72.65 71.35 72.65 67.25C72.65 63.15 69.35 59.85 65.25 59.85C61.15 59.85 57.85 63.15 57.85 67.25C57.85 71.35 61.15 74.65 65.25 74.65ZM59.7 86.7V82.8C59.05 82.55 58.4 82.3 57.8 82L55 84.8L47.4 77.2L50.2 74.4C49.9 73.8 49.65 73.2 49.45 72.55H45.45V61.8H49.45C49.65 61.15 49.9 60.55 50.2 59.95L47.4 57.15L55 49.55L57.8 52.35C58.4 52.05 59.05 51.8 59.7 51.55V47.5H70.5V51.35C71.15 51.6 71.85 51.85 72.45 52.15L75.15 49.45L82.75 57.05L80.1 59.7C80.4 60.35 80.7 61 80.95 61.7H84.7V72.5H80.95C80.7 73.2 80.45 73.85 80.1 74.5L82.75 77.15L75.15 84.75L72.45 82.05C71.8 82.35 71.15 82.6 70.5 82.85V86.7H59.7V86.7Z" fill="white"/>
<path fill-rule="evenodd" clip-rule="evenodd" d="M72.65 67.25C72.65 71.35 69.35 74.65 65.25 74.65C61.15 74.65 57.85 71.35 57.85 67.25C57.85 63.15 61.15 59.85 65.25 59.85C69.35 59.85 72.65 63.15 72.65 67.25ZM75.15 67.25C75.15 72.7 70.7 77.15 65.25 77.15C59.8 77.15 55.35 72.7 55.35 67.25C55.35 61.8 59.8 57.35 65.25 57.35C70.7 57.35 75.15 61.8 75.15 67.25ZM55.05 84.75L57.85 81.95C58.45 82.25 59.1 82.5 59.75 82.75V86.65H70.5V82.8C71.15 82.55 71.85 82.3 72.45 82L75.15 84.7L82.75 77.1L80.1 74.45C80.4 73.8 80.7 73.15 80.95 72.45H84.7V61.7H80.95C80.7 61 80.45 60.35 80.1 59.7L82.75 57.05L75.15 49.45L72.45 52.15C71.8 51.85 71.15 51.6 70.5 51.35V47.5H59.75V51.4C59.1 51.65 58.45 51.9 57.85 52.2L55.05 49.4L47.45 57L50.25 59.8C49.95 60.4 49.7 61 49.5 61.65H45.5V72.5H49.5C49.7 73.15 49.95 73.75 50.25 74.35L47.45 77.15L55.05 84.75ZM62.2 81V84.2H68V81.05L69.7 80.5C70.25 80.3 70.85 80.1 71.35 79.8L72.95 79.05L75.15 81.25L79.25 77.15L77.1 75L77.9 73.4C78.15 72.85 78.4 72.3 78.6 71.7L79.2 70H82.25V64.25H79.2L78.6 62.55C78.4 61.95 78.15 61.4 77.9 60.85L77.1 59.25L79.25 57.1L75.15 53L72.95 55.2L71.35 54.45C70.8 54.2 70.25 53.95 69.7 53.75L68 53.2V50H62.25V53.2L60.6 53.8C60.05 54 59.5 54.2 59 54.5L57.4 55.3L55.1 53L51 57.1L53.3 59.4L52.55 61C52.3 61.5 52.1 62.05 51.9 62.55L51.3 64.25H48V70H51.25L51.85 71.7C52.05 72.25 52.25 72.75 52.5 73.25L53.25 74.85L50.95 77.15L55.05 81.25L57.35 78.95L58.95 79.75C59.45 80 60 80.25 60.55 80.45L62.2 81Z" fill="#2CB34A"/>
</svg>
