<svg width="160" height="160" viewBox="0 0 160 160" fill="none" xmlns="http://www.w3.org/2000/svg">
<path d="M80 160C124.183 160 160 124.183 160 80C160 35.8172 124.183 0 80 0C35.8172 0 0 35.8172 0 80C0 124.183 35.8172 160 80 160Z" fill="#DCEFE1"/>
<path d="M47.5 29H79C84.5 29 89 33.5 89 39V97C89 102.5 84.5 107 79 107H57.5C52 107 47.5 102.5 47.5 97V29Z" fill="white"/>
<path fill-rule="evenodd" clip-rule="evenodd" d="M79 27H52C46.5 27 42 31.5 42 37V103.5C42 109 46.5 113.5 52 113.5H79C84.5 113.5 89 109 89 103.5V37C89 31.5 84.5 27 79 27ZM53 29.5H78V31C78 32.4 76.9 33.5 75.5 33.5H55.5C54.1 33.5 53 32.4 53 31V29.5ZM86.5 103.5C86.5 107.65 83.15 111 79 111H52C47.85 111 44.5 107.65 44.5 103.5V37C44.5 33.35 47.1 30.35 50.5 29.65V31C50.5 33.75 52.75 36 55.5 36H75.5C78.25 36 80.5 33.75 80.5 31V29.65C83.9 30.35 86.5 33.35 86.5 37V103.5Z" fill="#2CB34A"/>
<path fill-rule="evenodd" clip-rule="evenodd" d="M81.8 70.5L74.4 77.9L72.65 76.15L79.5 69.3L72.65 62.45L74.4 60.7L81.8 68.1C82.45 68.7 82.45 69.8 81.8 70.5Z" fill="#2CB34A"/>
<path d="M85.5 45.4C87.4 40.2 93.15 37.55 98.35 39.5L123.7 48.85C128.9 50.75 131.55 56.5 129.6 61.7L106.55 124.1C104.65 129.3 98.9 131.95 93.7 130L68.35 120.65C63.15 118.75 60.5 113 62.45 107.8L85.5 45.4Z" fill="#DCEFE1"/>
<path fill-rule="evenodd" clip-rule="evenodd" d="M125.1 49.5L125.05 49.45C124.65 49.2 124.2 49 123.7 48.85L98.35 39.5C97.9 39.35 97.45 39.2 97 39.1L96.9 39.05C92.15 38.05 87.25 40.65 85.5 45.35L62.45 107.75C60.55 112.95 63.2 118.7 68.35 120.6L93.7 129.95C98.9 131.85 104.65 129.2 106.55 124.05L129.6 61.65C131.3 57 129.3 51.85 125.1 49.5ZM97.9 43.55L98.4 42.15L110.15 46.5L121.9 50.85L121.4 52.25C120.9 53.55 119.5 54.2 118.2 53.75L99.45 46.8C98.1 46.3 97.4 44.85 97.9 43.55ZM127.25 60.8L104.2 123.2C102.75 127.1 98.45 129.05 94.55 127.65L69.2 118.3C65.3 116.85 63.35 112.55 64.75 108.65L87.8 46.25C89.05 42.85 92.5 40.9 95.95 41.45L95.5 42.7C94.55 45.3 95.85 48.15 98.45 49.1L117.2 56.05C119.8 57 122.65 55.7 123.6 53.1L124.1 51.85C127.15 53.65 128.5 57.4 127.25 60.8Z" fill="#2CB34A"/>
<path d="M68.6009 57.4688L60.8149 80.5927L63.1841 81.3904L70.9702 58.2665L68.6009 57.4688Z" fill="#2CB34A"/>
<path fill-rule="evenodd" clip-rule="evenodd" d="M49.45 68L56.85 60.6L58.6 62.35L51.75 69.2L58.6 76.05L56.85 77.8L49.45 70.5C48.8 69.8 48.8 68.7 49.45 68Z" fill="#2CB34A"/>
<path d="M88.85 55.2C89.8 52.6 92.65 51.25 95.25 52.2L117.4 60.1C120 61.05 121.35 63.9 120.4 66.5L104.75 110.3C103.8 112.9 100.95 114.25 98.35 113.3L76.2 105.4C73.6 104.45 72.25 101.6 73.2 99L88.85 55.2Z" fill="white"/>
<path fill-rule="evenodd" clip-rule="evenodd" d="M97.05 56.9C94.7 56.1 92.15 57.4 91.35 59.75L90.4 62.6C89.6 64.95 90.9 67.5 93.25 68.3L96.1 69.25C98.45 70.05 101 68.75 101.8 66.4L102.75 63.55C103.55 61.2 102.25 58.65 99.9 57.85L97.05 56.9ZM99.1 60.25L96.25 59.3C95.2 58.95 94.05 59.5 93.7 60.55L92.75 63.4C92.4 64.45 92.95 65.6 94 65.95L96.85 66.9C97.9 67.25 99.05 66.7 99.4 65.65L100.35 62.8C100.7 61.7 100.15 60.6 99.1 60.25Z" fill="#21B544"/>
<path fill-rule="evenodd" clip-rule="evenodd" d="M109.85 61.15C107.5 60.35 104.95 61.65 104.15 64L103.2 66.85C102.4 69.2 103.7 71.75 106.05 72.55L109.35 73.65C111.7 74.45 114.25 73.15 115.05 70.8L116 67.95C116.8 65.6 115.5 63.05 113.15 62.25L109.85 61.15ZM112.4 64.65L109.1 63.55C108.05 63.2 106.9 63.75 106.55 64.8L105.6 67.65C105.25 68.7 105.8 69.85 106.85 70.2L110.15 71.3C111.2 71.65 112.35 71.1 112.7 70.05L113.65 67.2C114 66.1 113.45 65 112.4 64.65Z" fill="#21B544"/>
<path fill-rule="evenodd" clip-rule="evenodd" d="M92.55 70.4C90.2 69.6 87.65 70.9 86.85 73.25L85.9 76.1C85.1 78.45 86.4 81 88.75 81.8L91.6 82.75C93.95 83.55 96.5 82.25 97.3 79.9L98.25 77.05C99.05 74.7 97.75 72.15 95.4 71.35L92.55 70.4ZM94.6 73.75L91.75 72.8C90.7 72.45 89.55 73 89.2 74.05L88.25 76.9C87.9 77.95 88.45 79.1 89.5 79.45L92.35 80.4C93.4 80.75 94.55 80.2 94.9 79.15L95.85 76.3C96.2 75.2 95.65 74.1 94.6 73.75Z" fill="#21B544"/>
</svg>
